Engine/Binaries/Win64/UE4Game.exe	2018-11-28T17:54:07.002Z
Engine/Extras/Redist/en-us/UE4PrereqSetup_x64.exe	2018-11-28T18:03:43.828Z
Engine/Binaries/ThirdParty/Oculus/OVRPlugin/OVRPlugin/Win64/OVRPlugin.dll	2018-11-28T17:48:21.531Z
Engine/Binaries/ThirdParty/PhysX3/Win64/VS2015/PxFoundationPROFILE_x64.dll	2018-11-28T17:49:34.870Z
Engine/Binaries/ThirdParty/PhysX3/Win64/VS2015/PxPvdSDKPROFILE_x64.dll	2018-11-28T17:49:34.967Z
Engine/Binaries/ThirdParty/PhysX3/Win64/VS2015/PhysX3PROFILE_x64.dll	2018-11-28T17:49:28.597Z
Engine/Binaries/ThirdParty/PhysX3/Win64/VS2015/PhysX3CookingPROFILE_x64.dll	2018-11-28T17:49:27.994Z
Engine/Binaries/ThirdParty/PhysX3/Win64/VS2015/PhysX3CommonPROFILE_x64.dll	2018-11-28T17:49:27.939Z
Engine/Binaries/ThirdParty/PhysX3/Win64/VS2015/APEX_ClothingPROFILE_x64.dll	2018-11-28T17:48:57.028Z
Engine/Binaries/ThirdParty/PhysX3/Win64/VS2015/APEX_LegacyPROFILE_x64.dll	2018-11-28T17:49:07.529Z
Engine/Binaries/ThirdParty/PhysX3/Win64/VS2015/ApexFrameworkPROFILE_x64.dll	2018-11-28T17:49:15.702Z
Engine/Binaries/ThirdParty/Windows/DirectX/x64/WinPixEventRuntime.dll	2018-11-28T17:49:39.653Z
Engine/Binaries/ThirdParty/NVIDIA/NVaftermath/Win64/GFSDK_Aftermath_Lib.x64.dll	2018-11-28T17:48:21.478Z
Engine/Binaries/ThirdParty/PhysX3/Win64/VS2015/NvClothPROFILE_x64.dll	2018-11-28T17:49:18.118Z
Engine/Binaries/ThirdParty/OpenVR/OpenVRv1_0_11/Win64/openvr_api.dll	2018-11-28T17:48:21.589Z
Engine/Binaries/ThirdParty/Ogg/Win64/VS2015/libogg_64.dll	2018-11-28T17:48:21.536Z
Engine/Binaries/ThirdParty/Vorbis/Win64/VS2015/libvorbis_64.dll	2018-11-28T17:49:37.241Z
Engine/Binaries/ThirdParty/Vorbis/Win64/VS2015/libvorbisfile_64.dll	2018-11-28T17:49:37.243Z
Team_A_2.exe	2019-02-19T21:55:00.971Z
